Suite/Test/Step Name,Browser,Description,Tag,Start time,End time,Duration,Status
Feature Profile,,,,2023-02-21 12:09:05,2023-02-21 12:13:18,4m - 13.152s,FAILED
,,,,,,,
Test Cases/Step Definition/Feature Login/LGI001 - User login using registered email and correct password,,User want to login using registered email and correct password,NormalLogin,2023-02-21 12:09:46,2023-02-21 12:10:33,46.920s,PASSED
Start listener action : sampleBeforeTestCase,,,,2023-02-21 12:09:46,2023-02-21 12:10:15,29.538s,PASSED
"callTestCase(findTestCase(""Pages/Akun/Verify Element Akun - before login""), [:], STOP_ON_FAILURE)",,,,2023-02-21 12:10:16,2023-02-21 12:10:19,2.408s,PASSED
"callTestCase(findTestCase(""Pages/Akun/Tap Button Masuk""), [:], STOP_ON_FAILURE)",,,,2023-02-21 12:10:19,2023-02-21 12:10:20,1.587s,PASSED
"callTestCase(findTestCase(""Pages/Masuk/Verify Element Masuk""), [:], STOP_ON_FAILURE)",,,,2023-02-21 12:10:20,2023-02-21 12:10:25,4.477s,PASSED
"callTestCase(findTestCase(""Pages/Masuk/Input Email - Login""), [:], STOP_ON_FAILURE)",,,,2023-02-21 12:10:25,2023-02-21 12:10:26,1.615s,PASSED
"callTestCase(findTestCase(""Pages/Masuk/Input Password - Login""), [:], STOP_ON_FAILURE)",,,,2023-02-21 12:10:26,2023-02-21 12:10:27,1.177s,PASSED
"callTestCase(findTestCase(""Pages/Masuk/Tap Button Masuk""), [:], STOP_ON_FAILURE)",,,,2023-02-21 12:10:27,2023-02-21 12:10:28,0.723s,PASSED
"callTestCase(findTestCase(""Pages/Akun/Verify Element Akun - after login""), [:], STOP_ON_FAILURE)",,,,2023-02-21 12:10:28,2023-02-21 12:10:32,3.972s,PASSED
Start listener action : sampleAfterTestCase,,,,2023-02-21 12:10:32,2023-02-21 12:10:33,0.491s,PASSED
,,,,,,,
Test Cases/Step Definition/Feature Profile/PRO001 - User update nama dan new password,,,,2023-02-21 12:10:33,2023-02-21 12:13:18,2m - 45.483s,FAILED
Start listener action : sampleBeforeTestCase,,,,2023-02-21 12:10:33,2023-02-21 12:11:12,39.543s,PASSED
"callTestCase(findTestCase(""Pages/Profile/Tap Button Profile""), [:], STOP_ON_FAILURE)",,,,2023-02-21 12:11:13,2023-02-21 12:11:15,1.697s,PASSED
"callTestCase(findTestCase(""Pages/Profile/Verify Element Akun Saya""), [:], STOP_ON_FAILURE)",,,,2023-02-21 12:11:15,2023-02-21 12:13:18,2m - 2.824s,FAILED
Start listener action : sampleAfterTestCase,,,,2023-02-21 12:13:18,2023-02-21 12:13:18,0.516s,PASSED
