Suite/Test/Step Name,Browser,Description,Tag,Start time,End time,Duration,Status
Feature Login and Logout,,All scenarios of feature login,,2023-02-19 01:49:48,2023-02-19 01:52:14,2m - 26.861s,FAILED
,,,,,,,
Test Cases/Step Definition/Feature Login/LGI001 - User login using registered email and correct password,,User want to login using registered email and correct password,NormalLogin,2023-02-19 01:50:07,2023-02-19 01:50:31,24.140s,PASSED
Start listener action : sampleBeforeTestCase,,,,2023-02-19 01:50:07,2023-02-19 01:50:07,0.064s,PASSED
"callTestCase(findTestCase(""Pages/Beranda/Verify Element Beranda""), [:], STOP_ON_FAILURE)",,,,2023-02-19 01:50:09,2023-02-19 01:50:12,3.129s,PASSED
"callTestCase(findTestCase(""Pages/Beranda/Tap Navigation Bar Akun""), [:], STOP_ON_FAILURE)",,,,2023-02-19 01:50:12,2023-02-19 01:50:14,2.029s,PASSED
"callTestCase(findTestCase(""Pages/Akun/Verify Element Akun - before login""), [:], STOP_ON_FAILURE)",,,,2023-02-19 01:50:14,2023-02-19 01:50:16,1.737s,PASSED
"callTestCase(findTestCase(""Pages/Akun/Tap Button Masuk""), [:], STOP_ON_FAILURE)",,,,2023-02-19 01:50:16,2023-02-19 01:50:18,2.107s,PASSED
"callTestCase(findTestCase(""Pages/Masuk/Verify Element Masuk""), [:], STOP_ON_FAILURE)",,,,2023-02-19 01:50:18,2023-02-19 01:50:21,3.335s,PASSED
"callTestCase(findTestCase(""Pages/Masuk/Input Email - Login""), [:], STOP_ON_FAILURE)",,,,2023-02-19 01:50:21,2023-02-19 01:50:23,1.952s,PASSED
"callTestCase(findTestCase(""Pages/Masuk/Input Password - Login""), [:], STOP_ON_FAILURE)",,,,2023-02-19 01:50:23,2023-02-19 01:50:25,2.108s,PASSED
"callTestCase(findTestCase(""Pages/Masuk/Tap Button Masuk""), [:], STOP_ON_FAILURE)",,,,2023-02-19 01:50:25,2023-02-19 01:50:26,1.273s,PASSED
"callTestCase(findTestCase(""Pages/Akun/Verify Element Akun - after login""), [:], STOP_ON_FAILURE)",,,,2023-02-19 01:50:26,2023-02-19 01:50:31,5.126s,PASSED
Start listener action : sampleAfterTestCase,,,,2023-02-19 01:50:31,2023-02-19 01:50:31,0.003s,PASSED
,,,,,,,
Test Cases/Step Definition/Feature Logout/LGO001 - User logout,,User want to logout,,2023-02-19 01:50:31,2023-02-19 01:50:39,7.058s,PASSED
Start listener action : sampleBeforeTestCase,,,,2023-02-19 01:50:31,2023-02-19 01:50:31,0.005s,PASSED
"callTestCase(findTestCase(""Pages/Beranda/Tap Navigation Bar Akun""), [:], STOP_ON_FAILURE)",,,,2023-02-19 01:50:33,2023-02-19 01:50:34,0.952s,PASSED
"callTestCase(findTestCase(""Pages/Akun/Tap Button Keluar""), [:], STOP_ON_FAILURE)",,,,2023-02-19 01:50:34,2023-02-19 01:50:36,2.137s,PASSED
"callTestCase(findTestCase(""Pages/Beranda/Verify Element Beranda""), [:], STOP_ON_FAILURE)",,,,2023-02-19 01:50:36,2023-02-19 01:50:39,2.451s,PASSED
Start listener action : sampleAfterTestCase,,,,2023-02-19 01:50:39,2023-02-19 01:50:39,0.004s,PASSED
,,,,,,,
Test Cases/Step Definition/Feature Login/LGI002 - User login using registered email and incorrect password,,,,2023-02-19 01:50:39,2023-02-19 01:50:57,18.900s,FAILED
Start listener action : sampleBeforeTestCase,,,,2023-02-19 01:50:39,2023-02-19 01:50:39,0.006s,PASSED
"callTestCase(findTestCase(""Pages/Beranda/Verify Element Beranda""), [:], STOP_ON_FAILURE)",,,,2023-02-19 01:50:40,2023-02-19 01:50:41,1.367s,PASSED
"callTestCase(findTestCase(""Pages/Beranda/Tap Navigation Bar Akun""), [:], STOP_ON_FAILURE)",,,,2023-02-19 01:50:41,2023-02-19 01:50:42,1.037s,PASSED
"callTestCase(findTestCase(""Pages/Akun/Verify Element Akun - before login""), [:], STOP_ON_FAILURE)",,,,2023-02-19 01:50:42,2023-02-19 01:50:44,1.212s,PASSED
"callTestCase(findTestCase(""Pages/Akun/Tap Button Masuk""), [:], STOP_ON_FAILURE)",,,,2023-02-19 01:50:44,2023-02-19 01:50:45,1.101s,PASSED
"callTestCase(findTestCase(""Pages/Masuk/Verify Element Masuk""), [:], STOP_ON_FAILURE)",,,,2023-02-19 01:50:45,2023-02-19 01:50:48,2.928s,PASSED
"callTestCase(findTestCase(""Pages/Masuk/Input Email - Login""), [:], STOP_ON_FAILURE)",,,,2023-02-19 01:50:48,2023-02-19 01:50:49,1.561s,PASSED
"callTestCase(findTestCase(""Pages/Masuk/Input Random Password - Login""), [:], CONTINUE_ON_FAILURE)",,,,2023-02-19 01:50:49,2023-02-19 01:50:51,1.615s,PASSED
"callTestCase(findTestCase(""Pages/Masuk/Tap Button Masuk""), [:], STOP_ON_FAILURE)",,,,2023-02-19 01:50:51,2023-02-19 01:50:52,0.925s,PASSED
"callTestCase(findTestCase(""Pages/Masuk/Verify Element Masuk""), [:], STOP_ON_FAILURE)",,,,2023-02-19 01:50:52,2023-02-19 01:50:54,2.467s,PASSED
"callTestCase(findTestCase(""Pages/Akun/Verify Element Akun - failed login""), [:], STOP_ON_FAILURE)",,,,2023-02-19 01:50:54,2023-02-19 01:50:57,3.120s,FAILED
Start listener action : sampleAfterTestCase,,,,2023-02-19 01:50:57,2023-02-19 01:50:57,0.010s,PASSED
,,,,,,,
Test Cases/Step Definition/Feature Login/LGI003 - User login using unregistered email,,,,2023-02-19 01:50:57,2023-02-19 01:52:14,1m - 17.051s,PASSED
Start listener action : sampleBeforeTestCase,,,,2023-02-19 01:50:57,2023-02-19 01:50:57,0.010s,PASSED
"callTestCase(findTestCase(""Pages/Beranda/Verify Element Beranda""), [:], STOP_ON_FAILURE)",,,,2023-02-19 01:50:59,2023-02-19 01:51:00,1.284s,PASSED
"callTestCase(findTestCase(""Pages/Beranda/Tap Navigation Bar Akun""), [:], STOP_ON_FAILURE)",,,,2023-02-19 01:51:00,2023-02-19 01:51:01,1.545s,PASSED
"callTestCase(findTestCase(""Pages/Akun/Verify Element Akun - before login""), [:], STOP_ON_FAILURE)",,,,2023-02-19 01:51:01,2023-02-19 01:51:03,1.263s,PASSED
"callTestCase(findTestCase(""Pages/Akun/Tap Button Masuk""), [:], STOP_ON_FAILURE)",,,,2023-02-19 01:51:03,2023-02-19 01:51:04,1.041s,PASSED
"callTestCase(findTestCase(""Pages/Masuk/Verify Element Masuk""), [:], STOP_ON_FAILURE)",,,,2023-02-19 01:51:04,2023-02-19 01:51:07,2.999s,PASSED
"callTestCase(findTestCase(""Pages/Masuk/Input Random Email - Login""), [:], STOP_ON_FAILURE)",,,,2023-02-19 01:51:07,2023-02-19 01:51:09,2.077s,PASSED
"callTestCase(findTestCase(""Pages/Masuk/Input Random Password - Login""), [:], CONTINUE_ON_FAILURE)",,,,2023-02-19 01:51:09,2023-02-19 01:51:11,1.941s,PASSED
"callTestCase(findTestCase(""Pages/Masuk/Tap Button Masuk""), [:], STOP_ON_FAILURE)",,,,2023-02-19 01:51:11,2023-02-19 01:51:12,0.778s,PASSED
"callTestCase(findTestCase(""Pages/Masuk/Verify Element Masuk""), [:], STOP_ON_FAILURE)",,,,2023-02-19 01:51:12,2023-02-19 01:51:14,2.342s,PASSED
"callTestCase(findTestCase(""Pages/Akun/Verify Element Akun - failed login""), [:], STOP_ON_FAILURE)",,,,2023-02-19 01:51:14,2023-02-19 01:52:14,1m - 0.561s,PASSED
Start listener action : sampleAfterTestCase,,,,2023-02-19 01:52:14,2023-02-19 01:52:14,0.002s,PASSED
