Suite/Test/Step Name,Browser,Description,Tag,Start time,End time,Duration,Status
Feature Profile,,,,2023-02-21 16:33:11,2023-02-21 16:35:49,2m - 37.721s,PASSED
,,,,,,,
Test Cases/Step Definition/Feature Login/LGI001 - User login using registered email and correct password,,User want to login using registered email and correct password,NormalLogin,2023-02-21 16:33:54,2023-02-21 16:34:50,55.673s,PASSED
Start listener action : sampleBeforeTestCase,,,,2023-02-21 16:33:54,2023-02-21 16:34:34,40.253s,PASSED
"callTestCase(findTestCase(""Pages/Page Akun/Verify Element Akun - before login""), [:], STOP_ON_FAILURE)",,,,2023-02-21 16:34:35,2023-02-21 16:34:37,1.226s,PASSED
"callTestCase(findTestCase(""Pages/Page Akun/Tap Button Masuk""), [:], STOP_ON_FAILURE)",,,,2023-02-21 16:34:37,2023-02-21 16:34:37,0.878s,PASSED
"callTestCase(findTestCase(""Pages/Page Masuk/Verify Element Masuk""), [:], STOP_ON_FAILURE)",,,,2023-02-21 16:34:37,2023-02-21 16:34:41,3.536s,PASSED
"callTestCase(findTestCase(""Pages/Page Masuk/Input Email - Login""), [:], STOP_ON_FAILURE)",,,,2023-02-21 16:34:41,2023-02-21 16:34:43,1.673s,PASSED
"callTestCase(findTestCase(""Pages/Page Masuk/Input Password - Login""), [:], STOP_ON_FAILURE)",,,,2023-02-21 16:34:43,2023-02-21 16:34:45,2.029s,PASSED
"callTestCase(findTestCase(""Pages/Page Masuk/Tap Button Masuk""), [:], STOP_ON_FAILURE)",,,,2023-02-21 16:34:45,2023-02-21 16:34:48,3.032s,PASSED
"callTestCase(findTestCase(""Pages/Page Akun/Verify Element Akun - after login""), [:], STOP_ON_FAILURE)",,,,2023-02-21 16:34:48,2023-02-21 16:34:50,2.131s,PASSED
,,,,,,,
Test Cases/Step Definition/Feature Profile/PRO001 - User update nama dan new password,,,,2023-02-21 16:34:50,2023-02-21 16:35:49,59.353s,PASSED
Start listener action : sampleBeforeTestCase,,,,2023-02-21 16:34:50,2023-02-21 16:35:27,37.171s,PASSED
"callTestCase(findTestCase(""Pages/Profile/Verify Element Akun Saya""), [:], STOP_ON_FAILURE)",,,,2023-02-21 16:35:28,2023-02-21 16:35:29,1.231s,PASSED
"callTestCase(findTestCase(""Pages/Profile/Tap Button Edit Profile""), [:], STOP_ON_FAILURE)",,,,2023-02-21 16:35:29,2023-02-21 16:35:30,0.879s,PASSED
"callTestCase(findTestCase(""Pages/Profile/Verify Element Lengkapi Info Akun""), [:], STOP_ON_FAILURE)",,,,2023-02-21 16:35:30,2023-02-21 16:35:33,3.529s,PASSED
"callTestCase(findTestCase(""Pages/Profile/Click ViewGroup Nama""), [:], STOP_ON_FAILURE)",,,,2023-02-21 16:35:33,2023-02-21 16:35:34,0.569s,PASSED
"callTestCase(findTestCase(""Pages/Profile/Verify Element Card Nama""), [:], STOP_ON_FAILURE)",,,,2023-02-21 16:35:34,2023-02-21 16:35:35,1.718s,PASSED
"callTestCase(findTestCase(""Pages/Profile/Update Nama""), [:], STOP_ON_FAILURE)",,,,2023-02-21 16:35:35,2023-02-21 16:35:38,2.632s,PASSED
"callTestCase(findTestCase(""Pages/Profile/Click ViewGroup Pwd""), [:], STOP_ON_FAILURE)",,,,2023-02-21 16:35:38,2023-02-21 16:35:40,1.622s,PASSED
"callTestCase(findTestCase(""Pages/Profile/Verify Element Card Ubah Password""), [:], STOP_ON_FAILURE)",,,,2023-02-21 16:35:40,2023-02-21 16:35:42,2.186s,PASSED
"callTestCase(findTestCase(""Pages/Profile/Update Password""), [:], STOP_ON_FAILURE)",,,,2023-02-21 16:35:42,2023-02-21 16:35:49,7.246s,PASSED
